{
    "name": "Digitom.Utilities.ObiRope",
    "rootNamespace": "",
    "references": [
        "GUID:2ad3604a3e2e24e4584fb53178f88108",
        "GUID:da7abd44cdeea48609605c1c2c9609c0"
    ],
    "includePlatforms": [],
    "excludePlatforms": [],
    "allowUnsafeCode": false,
    "overrideReferences": false,
    "precompiledReferences": [
        "Newtonsoft.Json.dll"
    ],
    "autoReferenced": true,
    "defineConstraints": [],
    "versionDefines": [],
    "noEngineReferences": false
}